digraph "Game/include/Scene.h"
{
 // LATEX_PDF_SIZE
  edge [fontname="Helvetica",fontsize="10",labelfontname="Helvetica",labelfontsize="10"];
  node [fontname="Helvetica",fontsize="10",shape=record];
  Node1 [label="Game/include/Scene.h",height=0.2,width=0.4,color="black", fillcolor="grey75", style="filled", fontcolor="black",tooltip="Файл с реализацией сцены (уровня)"];
  Node1 -> Node2 [color="midnightblue",fontsize="10",style="solid",fontname="Helvetica"];
  Node2 [label="Player.h",height=0.2,width=0.4,color="black", fillcolor="white", style="filled",URL="$_player_8h.html",tooltip="Файл с основой для люьбых объектов"];
  Node2 -> Node3 [color="midnightblue",fontsize="10",style="solid",fontname="Helvetica"];
  Node3 [label="Object.h",height=0.2,width=0.4,color="black", fillcolor="white", style="filled",URL="$_object_8h.html",tooltip="Файл с основой для люьбых объектов"];
  Node3 -> Node4 [color="midnightblue",fontsize="10",style="solid",fontname="Helvetica"];
  Node4 [label="Math.h",height=0.2,width=0.4,color="black", fillcolor="white", style="filled",URL="$_math_8h.html",tooltip="основной модуль математики"];
  Node4 -> Node5 [color="midnightblue",fontsize="10",style="solid",fontname="Helvetica"];
  Node5 [label="SFML/Graphics/Shape.hpp",height=0.2,width=0.4,color="grey75", fillcolor="white", style="filled",tooltip=" "];
  Node4 -> Node6 [color="midnightblue",fontsize="10",style="solid",fontname="Helvetica"];
  Node6 [label="Config.h",height=0.2,width=0.4,color="black", fillcolor="white", style="filled",URL="$_config_8h.html",tooltip=" "];
  Node6 -> Node7 [color="midnightblue",fontsize="10",style="solid",fontname="Helvetica"];
  Node7 [label="Logger.h",height=0.2,width=0.4,color="black", fillcolor="white", style="filled",URL="$_logger_8h.html",tooltip="Исключения"];
  Node7 -> Node8 [color="midnightblue",fontsize="10",style="solid",fontname="Helvetica"];
  Node8 [label="fstream",height=0.2,width=0.4,color="grey75", fillcolor="white", style="filled",tooltip=" "];
  Node7 -> Node9 [color="midnightblue",fontsize="10",style="solid",fontname="Helvetica"];
  Node9 [label="chrono",height=0.2,width=0.4,color="grey75", fillcolor="white", style="filled",tooltip=" "];
  Node7 -> Node10 [color="midnightblue",fontsize="10",style="solid",fontname="Helvetica"];
  Node10 [label="string",height=0.2,width=0.4,color="grey75", fillcolor="white", style="filled",tooltip=" "];
  Node6 -> Node11 [color="midnightblue",fontsize="10",style="solid",fontname="Helvetica"];
  Node11 [label="Exceptions.h",height=0.2,width=0.4,color="black", fillcolor="white", style="filled",URL="$_exceptions_8h.html",tooltip="Исключения"];
  Node11 -> Node12 [color="midnightblue",fontsize="10",style="solid",fontname="Helvetica"];
  Node12 [label="utility",height=0.2,width=0.4,color="grey75", fillcolor="white", style="filled",tooltip=" "];
  Node11 -> Node7 [color="midnightblue",fontsize="10",style="solid",fontname="Helvetica"];
  Node6 -> Node13 [color="midnightblue",fontsize="10",style="solid",fontname="Helvetica"];
  Node13 [label="SFML/System/Vector2.hpp",height=0.2,width=0.4,color="grey75", fillcolor="white", style="filled",tooltip=" "];
  Node6 -> Node14 [color="midnightblue",fontsize="10",style="solid",fontname="Helvetica"];
  Node14 [label="SFML/System/Vector3.hpp",height=0.2,width=0.4,color="grey75", fillcolor="white", style="filled",tooltip=" "];
  Node6 -> Node15 [color="midnightblue",fontsize="10",style="solid",fontname="Helvetica"];
  Node15 [label="SFML/Graphics/CircleShape.hpp",height=0.2,width=0.4,color="grey75", fillcolor="white", style="filled",tooltip=" "];
  Node4 -> Node16 [color="midnightblue",fontsize="10",style="solid",fontname="Helvetica"];
  Node16 [label="Alg_vec2.h",height=0.2,width=0.4,color="black", fillcolor="white", style="filled",URL="$_alg__vec2_8h.html",tooltip="Математика: дмуверный вектор"];
  Node16 -> Node17 [color="midnightblue",fontsize="10",style="solid",fontname="Helvetica"];
  Node17 [label="cmath",height=0.2,width=0.4,color="grey75", fillcolor="white", style="filled",tooltip=" "];
  Node16 -> Node6 [color="midnightblue",fontsize="10",style="solid",fontname="Helvetica"];
  Node16 -> Node11 [color="midnightblue",fontsize="10",style="solid",fontname="Helvetica"];
  Node16 -> Node18 [color="midnightblue",fontsize="10",style="solid",fontname="Helvetica"];
  Node18 [label="Alg_vec3.h",height=0.2,width=0.4,color="black", fillcolor="white", style="filled",URL="$_alg__vec3_8h.html",tooltip="Математика: трёхмерный вектор"];
  Node3 -> Node19 [color="midnightblue",fontsize="10",style="solid",fontname="Helvetica"];
  Node19 [label="pugixml.hpp",height=0.2,width=0.4,color="grey75", fillcolor="white", style="filled",tooltip=" "];
  Node3 -> Node6 [color="midnightblue",fontsize="10",style="solid",fontname="Helvetica"];
  Node3 -> Node20 [color="midnightblue",fontsize="10",style="solid",fontname="Helvetica"];
  Node20 [label="Textures.h",height=0.2,width=0.4,color="black", fillcolor="white", style="filled",URL="$_textures_8h_source.html",tooltip=" "];
  Node20 -> Node21 [color="midnightblue",fontsize="10",style="solid",fontname="Helvetica"];
  Node21 [label="vector",height=0.2,width=0.4,color="grey75", fillcolor="white", style="filled",tooltip=" "];
  Node20 -> Node22 [color="midnightblue",fontsize="10",style="solid",fontname="Helvetica"];
  Node22 [label="SFML/Graphics/Texture.hpp",height=0.2,width=0.4,color="grey75", fillcolor="white", style="filled",tooltip=" "];
  Node20 -> Node6 [color="midnightblue",fontsize="10",style="solid",fontname="Helvetica"];
  Node3 -> Node23 [color="midnightblue",fontsize="10",style="solid",fontname="Helvetica"];
  Node23 [label="Virtual_classes.h",height=0.2,width=0.4,color="black", fillcolor="white", style="filled",URL="$_virtual__classes_8h.html",tooltip="Файл интерфейсов"];
  Node23 -> Node19 [color="midnightblue",fontsize="10",style="solid",fontname="Helvetica"];
  Node23 -> Node24 [color="midnightblue",fontsize="10",style="solid",fontname="Helvetica"];
  Node24 [label="SFML/Graphics/RenderWindow.hpp",height=0.2,width=0.4,color="grey75", fillcolor="white", style="filled",tooltip=" "];
  Node3 -> Node21 [color="midnightblue",fontsize="10",style="solid",fontname="Helvetica"];
  Node3 -> Node25 [color="midnightblue",fontsize="10",style="solid",fontname="Helvetica"];
  Node25 [label="cstdint",height=0.2,width=0.4,color="grey75", fillcolor="white", style="filled",tooltip=" "];
  Node3 -> Node10 [color="midnightblue",fontsize="10",style="solid",fontname="Helvetica"];
  Node3 -> Node26 [color="midnightblue",fontsize="10",style="solid",fontname="Helvetica"];
  Node26 [label="memory",height=0.2,width=0.4,color="grey75", fillcolor="white", style="filled",tooltip=" "];
  Node3 -> Node15 [color="midnightblue",fontsize="10",style="solid",fontname="Helvetica"];
  Node3 -> Node22 [color="midnightblue",fontsize="10",style="solid",fontname="Helvetica"];
  Node3 -> Node27 [color="midnightblue",fontsize="10",style="solid",fontname="Helvetica"];
  Node27 [label="SFML/Graphics/Sprite.hpp",height=0.2,width=0.4,color="grey75", fillcolor="white", style="filled",tooltip=" "];
  Node3 -> Node24 [color="midnightblue",fontsize="10",style="solid",fontname="Helvetica"];
  Node2 -> Node28 [color="midnightblue",fontsize="10",style="solid",fontname="Helvetica"];
  Node28 [label="Weapon.h",height=0.2,width=0.4,color="black", fillcolor="white", style="filled",URL="$_weapon_8h.html",tooltip="Файл с классом оружие"];
  Node28 -> Node16 [color="midnightblue",fontsize="10",style="solid",fontname="Helvetica"];
  Node28 -> Node20 [color="midnightblue",fontsize="10",style="solid",fontname="Helvetica"];
  Node28 -> Node19 [color="midnightblue",fontsize="10",style="solid",fontname="Helvetica"];
  Node28 -> Node23 [color="midnightblue",fontsize="10",style="solid",fontname="Helvetica"];
  Node2 -> Node29 [color="midnightblue",fontsize="10",style="solid",fontname="Helvetica"];
  Node29 [label="Weapons.h",height=0.2,width=0.4,color="black", fillcolor="white", style="filled",URL="$_weapons_8h_source.html",tooltip=" "];
  Node29 -> Node30 [color="midnightblue",fontsize="10",style="solid",fontname="Helvetica"];
  Node30 [label="map",height=0.2,width=0.4,color="grey75", fillcolor="white", style="filled",tooltip=" "];
  Node29 -> Node28 [color="midnightblue",fontsize="10",style="solid",fontname="Helvetica"];
  Node29 -> Node19 [color="midnightblue",fontsize="10",style="solid",fontname="Helvetica"];
  Node1 -> Node19 [color="midnightblue",fontsize="10",style="solid",fontname="Helvetica"];
  Node1 -> Node31 [color="midnightblue",fontsize="10",style="solid",fontname="Helvetica"];
  Node31 [label="Enemy.h",height=0.2,width=0.4,color="black", fillcolor="white", style="filled",URL="$_enemy_8h_source.html",tooltip=" "];
  Node31 -> Node4 [color="midnightblue",fontsize="10",style="solid",fontname="Helvetica"];
  Node31 -> Node2 [color="midnightblue",fontsize="10",style="solid",fontname="Helvetica"];
  Node31 -> Node1 [color="midnightblue",fontsize="10",style="solid",fontname="Helvetica"];
  Node31 -> Node17 [color="midnightblue",fontsize="10",style="solid",fontname="Helvetica"];
  Node31 -> Node32 [color="midnightblue",fontsize="10",style="solid",fontname="Helvetica"];
  Node32 [label="iostream",height=0.2,width=0.4,color="grey75", fillcolor="white", style="filled",tooltip=" "];
  Node31 -> Node12 [color="midnightblue",fontsize="10",style="solid",fontname="Helvetica"];
  Node1 -> Node33 [color="midnightblue",fontsize="10",style="solid",fontname="Helvetica"];
  Node33 [label="Asteroid.h",height=0.2,width=0.4,color="black", fillcolor="white", style="filled",URL="$_asteroid_8h_source.html",tooltip=" "];
  Node33 -> Node3 [color="midnightblue",fontsize="10",style="solid",fontname="Helvetica"];
  Node33 -> Node2 [color="midnightblue",fontsize="10",style="solid",fontname="Helvetica"];
}
