digraph "Drawable"
{
 // LATEX_PDF_SIZE
  edge [fontname="Helvetica",fontsize="10",labelfontname="Helvetica",labelfontsize="10"];
  node [fontname="Helvetica",fontsize="10",shape=record];
  Node1 [label="Drawable",height=0.2,width=0.4,color="black", fillcolor="grey75", style="filled", fontcolor="black",tooltip="Интерфейс отрисовки объектов"];
  Node1 -> Node2 [dir="back",color="midnightblue",fontsize="10",style="solid",fontname="Helvetica"];
  Node2 [label="Object",height=0.2,width=0.4,color="black", fillcolor="white", style="filled",URL="$class_object.html",tooltip="Класс объектов"];
  Node2 -> Node3 [dir="back",color="midnightblue",fontsize="10",style="solid",fontname="Helvetica"];
  Node3 [label="Asteroid",height=0.2,width=0.4,color="black", fillcolor="white", style="filled",URL="$class_asteroid.html",tooltip=" "];
  Node2 -> Node4 [dir="back",color="midnightblue",fontsize="10",style="solid",fontname="Helvetica"];
  Node4 [label="Bullet",height=0.2,width=0.4,color="black", fillcolor="white", style="filled",URL="$class_bullet.html",tooltip=" "];
  Node2 -> Node5 [dir="back",color="midnightblue",fontsize="10",style="solid",fontname="Helvetica"];
  Node5 [label="Player",height=0.2,width=0.4,color="black", fillcolor="white", style="filled",URL="$class_player.html",tooltip="Класс игрока"];
  Node5 -> Node6 [dir="back",color="midnightblue",fontsize="10",style="solid",fontname="Helvetica"];
  Node6 [label="Enemy",height=0.2,width=0.4,color="black", fillcolor="white", style="filled",URL="$class_enemy.html",tooltip="Класс бота Бот игрокоподобный объект со своим AI."];
}
