digraph "Player"
{
 // LATEX_PDF_SIZE
  edge [fontname="Helvetica",fontsize="10",labelfontname="Helvetica",labelfontsize="10"];
  node [fontname="Helvetica",fontsize="10",shape=record];
  Node1 [label="Player",height=0.2,width=0.4,color="black", fillcolor="grey75", style="filled", fontcolor="black",tooltip="Класс игрока"];
  Node2 -> Node1 [dir="back",color="midnightblue",fontsize="10",style="solid",fontname="Helvetica"];
  Node2 [label="Object",height=0.2,width=0.4,color="black", fillcolor="white", style="filled",URL="$class_object.html",tooltip="Класс объектов"];
  Node3 -> Node2 [dir="back",color="midnightblue",fontsize="10",style="solid",fontname="Helvetica"];
  Node3 [label="Movable",height=0.2,width=0.4,color="black", fillcolor="white", style="filled",URL="$class_movable.html",tooltip="Интерфейс движения"];
  Node4 -> Node2 [dir="back",color="midnightblue",fontsize="10",style="solid",fontname="Helvetica"];
  Node4 [label="Resizable",height=0.2,width=0.4,color="black", fillcolor="white", style="filled",URL="$class_resizable.html",tooltip="Интерфейс измения масштаба"];
  Node5 -> Node2 [dir="back",color="midnightblue",fontsize="10",style="solid",fontname="Helvetica"];
  Node5 [label="Hittable",height=0.2,width=0.4,color="black", fillcolor="white", style="filled",URL="$class_hittable.html",tooltip="Интерфейс получения урона"];
  Node6 -> Node2 [dir="back",color="midnightblue",fontsize="10",style="solid",fontname="Helvetica"];
  Node6 [label="Damageable",height=0.2,width=0.4,color="black", fillcolor="white", style="filled",URL="$class_damageable.html",tooltip="Интерфейс нанесения урона"];
  Node7 -> Node2 [dir="back",color="midnightblue",fontsize="10",style="solid",fontname="Helvetica"];
  Node7 [label="Drawable",height=0.2,width=0.4,color="black", fillcolor="white", style="filled",URL="$class_drawable.html",tooltip="Интерфейс отрисовки объектов"];
  Node8 -> Node2 [dir="back",color="midnightblue",fontsize="10",style="solid",fontname="Helvetica"];
  Node8 [label="Savable",height=0.2,width=0.4,color="black", fillcolor="white", style="filled",URL="$class_savable.html",tooltip="Интерфейс сохранения объектов"];
  Node9 -> Node2 [dir="back",color="darkorchid3",fontsize="10",style="dashed",label=" _coords" ,fontname="Helvetica"];
  Node9 [label="math::Coords",height=0.2,width=0.4,color="black", fillcolor="white", style="filled",URL="$structmath_1_1_coords.html",tooltip="Класс координат имеет координату x, y, z."];
}
