digraph "debug::InhibitedArgument"
{
 // LATEX_PDF_SIZE
  edge [fontname="Helvetica",fontsize="10",labelfontname="Helvetica",labelfontsize="10"];
  node [fontname="Helvetica",fontsize="10",shape=record];
  Node1 [label="debug::InhibitedArgument",height=0.2,width=0.4,color="black", fillcolor="grey75", style="filled", fontcolor="black",tooltip="Исключение запрещённого аргумента"];
  Node2 -> Node1 [dir="back",color="midnightblue",fontsize="10",style="solid",fontname="Helvetica"];
  Node2 [label="debug::Exception",height=0.2,width=0.4,color="black", fillcolor="white", style="filled",URL="$classdebug_1_1_exception.html",tooltip="Общий класс исключений"];
  Node3 -> Node2 [dir="back",color="midnightblue",fontsize="10",style="solid",fontname="Helvetica"];
  Node3 [label="std::exception",height=0.2,width=0.4,color="grey75", fillcolor="white", style="filled",tooltip=" "];
}
