digraph "library" {
  compound=true
  node [ fontsize="10", fontname="Helvetica"];
  edge [ labelfontsize="10", labelfontname="Helvetica"];
  subgraph clusterdir_e3d620c6b6fdb93ed3bc6186215bde2e {
    graph [ bgcolor="#eeeeff", pencolor="black", label="" URL="dir_e3d620c6b6fdb93ed3bc6186215bde2e.html"];
    dir_e3d620c6b6fdb93ed3bc6186215bde2e [shape=plaintext label="library"];
    dir_9bb0cdb2fc6936e925cffa69d90b0c80 [shape=box label="include" color="black" fillcolor="white" style="filled" URL="dir_9bb0cdb2fc6936e925cffa69d90b0c80.html"];
  }
  dir_d403198d2aa38de87971f2789d60a3dd [shape=box label="Exceptions" fillcolor="white" style="filled" color="red" URL="dir_d403198d2aa38de87971f2789d60a3dd.html"];
  dir_9bb0cdb2fc6936e925cffa69d90b0c80->dir_d403198d2aa38de87971f2789d60a3dd [headlabel="2", labeldistance=1.5 headhref="dir_000005_000000.html"];
}
